%YAML 1.1
%TAG !u! tag:unity3d.com,2011:
--- !u!29 &1
OcclusionCullingSettings:
  m_ObjectHideFlags: 0
  serializedVersion: 2
  m_OcclusionBakeSettings:
    smallestOccluder: 5
    smallestHole: 0.25
    backfaceThreshold: 100
  m_SceneGUID: 00000000000000000000000000000000
  m_OcclusionCullingData: {fileID: 0}
--- !u!104 &2
RenderSettings:
  m_ObjectHideFlags: 0
  serializedVersion: 9
  m_Fog: 0
  m_FogColor: {r: 0.5, g: 0.5, b: 0.5, a: 1}
  m_FogMode: 3
  m_FogDensity: 0.01
  m_LinearFogStart: 0
  m_LinearFogEnd: 300
  m_AmbientSkyColor: {r: 0.212, g: 0.227, b: 0.259, a: 1}
  m_AmbientEquatorColor: {r: 0.114, g: 0.125, b: 0.133, a: 1}
  m_AmbientGroundColor: {r: 0.047, g: 0.043, b: 0.035, a: 1}
  m_AmbientIntensity: 1
  m_AmbientMode: 0
  m_SubtractiveShadowColor: {r: 0.42, g: 0.478, b: 0.627, a: 1}
  m_SkyboxMaterial: {fileID: 10304, guid: 0000000000000000f000000000000000, type: 0}
  m_HaloStrength: 0.5
  m_FlareStrength: 1
  m_FlareFadeSpeed: 3
  m_HaloTexture: {fileID: 0}
  m_SpotCookie: {fileID: 10001, guid: 0000000000000000e000000000000000, type: 0}
  m_DefaultReflectionMode: 0
  m_DefaultReflectionResolution: 128
  m_ReflectionBounces: 1
  m_ReflectionIntensity: 1
  m_CustomReflection: {fileID: 0}
  m_Sun: {fileID: 0}
  m_IndirectSpecularColor: {r: 0.44657874, g: 0.49641258, b: 0.5748172, a: 1}
  m_UseRadianceAmbientProbe: 0
--- !u!157 &3
LightmapSettings:
  m_ObjectHideFlags: 0
  serializedVersion: 12
  m_GIWorkflowMode: 1
  m_GISettings:
    serializedVersion: 2
    m_BounceScale: 1
    m_IndirectOutputScale: 1
    m_AlbedoBoost: 1
    m_EnvironmentLightingMode: 0
    m_EnableBakedLightmaps: 1
    m_EnableRealtimeLightmaps: 0
  m_LightmapEditorSettings:
    serializedVersion: 12
    m_Resolution: 2
    m_BakeResolution: 40
    m_AtlasSize: 1024
    m_AO: 0
    m_AOMaxDistance: 1
    m_CompAOExponent: 1
    m_CompAOExponentDirect: 0
    m_ExtractAmbientOcclusion: 0
    m_Padding: 2
    m_LightmapParameters: {fileID: 0}
    m_LightmapsBakeMode: 1
    m_TextureCompression: 1
    m_FinalGather: 0
    m_FinalGatherFiltering: 1
    m_FinalGatherRayCount: 256
    m_ReflectionCompression: 2
    m_MixedBakeMode: 2
    m_BakeBackend: 1
    m_PVRSampling: 1
    m_PVRDirectSampleCount: 32
    m_PVRSampleCount: 512
    m_PVRBounces: 2
    m_PVREnvironmentSampleCount: 256
    m_PVREnvironmentReferencePointCount: 2048
    m_PVRFilteringMode: 1
    m_PVRDenoiserTypeDirect: 1
    m_PVRDenoiserTypeIndirect: 1
    m_PVRDenoiserTypeAO: 1
    m_PVRFilterTypeDirect: 0
    m_PVRFilterTypeIndirect: 0
    m_PVRFilterTypeAO: 0
    m_PVREnvironmentMIS: 1
    m_PVRCulling: 1
    m_PVRFilteringGaussRadiusDirect: 1
    m_PVRFilteringGaussRadiusIndirect: 5
    m_PVRFilteringGaussRadiusAO: 2
    m_PVRFilteringAtrousPositionSigmaDirect: 0.5
    m_PVRFilteringAtrousPositionSigmaIndirect: 2
    m_PVRFilteringAtrousPositionSigmaAO: 1
    m_ExportTrainingData: 0
    m_TrainingDataDestination: TrainingData
    m_LightProbeSampleCountMultiplier: 4
  m_LightingDataAsset: {fileID: 0}
  m_LightingSettings: {fileID: 0}
--- !u!196 &4
NavMeshSettings:
  serializedVersion: 2
  m_ObjectHideFlags: 0
  m_BuildSettings:
    serializedVersion: 2
    agentTypeID: 0
    agentRadius: 0.5
    agentHeight: 2
    agentSlope: 45
    agentClimb: 0.4
    ledgeDropHeight: 0
    maxJumpAcrossDistance: 0
    minRegionArea: 2
    manualCellSize: 0
    cellSize: 0.16666667
    manualTileSize: 0
    tileSize: 256
    accuratePlacement: 0
    maxJobWorkers: 0
    preserveTilesOutsideBounds: 0
    debug:
      m_Flags: 0
  m_NavMeshData: {fileID: 0}
--- !u!114 &203410858 stripped
MonoBehaviour:
  m_CorrespondingSourceObject: {fileID: 8900286704695342087, guid: bad8b60fa6b035942bbf42dd385b13ca, type: 3}
  m_PrefabInstance: {fileID: 1539498971}
  m_PrefabAsset: {fileID: 0}
  m_GameObject: {fileID: 0}
  m_Enabled: 1
  m_EditorHideFlags: 0
  m_Script: {fileID: 11500000, guid: fe87c0e1cc204ed48ad3b37840f39efc, type: 3}
  m_Name: 
  m_EditorClassIdentifier: 
--- !u!114 &263484094 stripped
MonoBehaviour:
  m_CorrespondingSourceObject: {fileID: 8900286704731578723, guid: bad8b60fa6b035942bbf42dd385b13ca, type: 3}
  m_PrefabInstance: {fileID: 1539498971}
  m_PrefabAsset: {fileID: 0}
  m_GameObject: {fileID: 0}
  m_Enabled: 1
  m_EditorHideFlags: 0
  m_Script: {fileID: 11500000, guid: 4e29b1a8efbd4b44bb3f3716e73f07ff, type: 3}
  m_Name: 
  m_EditorClassIdentifier: 
--- !u!114 &316997553 stripped
MonoBehaviour:
  m_CorrespondingSourceObject: {fileID: 8900286705010326950, guid: bad8b60fa6b035942bbf42dd385b13ca, type: 3}
  m_PrefabInstance: {fileID: 1539498971}
  m_PrefabAsset: {fileID: 0}
  m_GameObject: {fileID: 0}
  m_Enabled: 1
  m_EditorHideFlags: 0
  m_Script: {fileID: 11500000, guid: fe87c0e1cc204ed48ad3b37840f39efc, type: 3}
  m_Name: 
  m_EditorClassIdentifier: 
--- !u!114 &352004870 stripped
MonoBehaviour:
  m_CorrespondingSourceObject: {fileID: 8688154072026126876, guid: bad8b60fa6b035942bbf42dd385b13ca, type: 3}
  m_PrefabInstance: {fileID: 1539498971}
  m_PrefabAsset: {fileID: 0}
  m_GameObject: {fileID: 0}
  m_Enabled: 1
  m_EditorHideFlags: 0
  m_Script: {fileID: 11500000, guid: 5e70530c4f342ef4db1ff3880c11754c, type: 3}
  m_Name: 
  m_EditorClassIdentifier: 
--- !u!114 &384797738 stripped
MonoBehaviour:
  m_CorrespondingSourceObject: {fileID: 8900286706084971784, guid: bad8b60fa6b035942bbf42dd385b13ca, type: 3}
  m_PrefabInstance: {fileID: 1539498971}
  m_PrefabAsset: {fileID: 0}
  m_GameObject: {fileID: 0}
  m_Enabled: 1
  m_EditorHideFlags: 0
  m_Script: {fileID: 11500000, guid: f4688fdb7df04437aeb418b961361dc5, type: 3}
  m_Name: 
  m_EditorClassIdentifier: 
--- !u!1 &410984014
GameObject:
  m_ObjectHideFlags: 0
  m_CorrespondingSourceObject: {fileID: 0}
  m_PrefabInstance: {fileID: 0}
  m_PrefabAsset: {fileID: 0}
  serializedVersion: 6
  m_Component:
  - component: {fileID: 410984015}
  - component: {fileID: 410984019}
  - component: {fileID: 410984018}
  - component: {fileID: 410984017}
  - component: {fileID: 410984016}
  m_Layer: 0
  m_Name: Cube (3)
  m_TagString: Untagged
  m_Icon: {fileID: 0}
  m_NavMeshLayer: 0
  m_StaticEditorFlags: 0
  m_IsActive: 1
--- !u!4 &410984015
Transform:
  m_ObjectHideFlags: 0
  m_CorrespondingSourceObject: {fileID: 0}
  m_PrefabInstance: {fileID: 0}
  m_PrefabAsset: {fileID: 0}
  m_GameObject: {fileID: 410984014}
  m_LocalRotation: {x: -0, y: -0, z: -0, w: 1}
  m_LocalPosition: {x: 0.5, y: -0.57984567, z: 1.8499999}
  m_LocalScale: {x: 1, y: 1, z: 1}
  m_Children: []
  m_Father: {fileID: 494791142}
  m_RootOrder: 3
  m_LocalEulerAnglesHint: {x: 0, y: 0, z: 0}
--- !u!114 &410984016
MonoBehaviour:
  m_ObjectHideFlags: 0
  m_CorrespondingSourceObject: {fileID: 0}
  m_PrefabInstance: {fileID: 0}
  m_PrefabAsset: {fileID: 0}
  m_GameObject: {fileID: 410984014}
  m_Enabled: 1
  m_EditorHideFlags: 0
  m_Script: {fileID: 11500000, guid: 506b6be486f17c24184f27e9b063d004, type: 3}
  m_Name: 
  m_EditorClassIdentifier: 
  _platform: {fileID: 410984015}
--- !u!65 &410984017
BoxCollider:
  m_ObjectHideFlags: 0
  m_CorrespondingSourceObject: {fileID: 0}
  m_PrefabInstance: {fileID: 0}
  m_PrefabAsset: {fileID: 0}
  m_GameObject: {fileID: 410984014}
  m_Material: {fileID: 0}
  m_IsTrigger: 0
  m_Enabled: 1
  serializedVersion: 2
  m_Size: {x: 1, y: 1, z: 1}
  m_Center: {x: 0, y: 0, z: 0}
--- !u!23 &410984018
MeshRenderer:
  m_ObjectHideFlags: 0
  m_CorrespondingSourceObject: {fileID: 0}
  m_PrefabInstance: {fileID: 0}
  m_PrefabAsset: {fileID: 0}
  m_GameObject: {fileID: 410984014}
  m_Enabled: 1
  m_CastShadows: 1
  m_ReceiveShadows: 1
  m_DynamicOccludee: 1
  m_MotionVectors: 1
  m_LightProbeUsage: 1
  m_ReflectionProbeUsage: 1
  m_RayTracingMode: 2
  m_RayTraceProcedural: 0
  m_RenderingLayerMask: 1
  m_RendererPriority: 0
  m_Materials:
  - {fileID: 2100000, guid: 51e5ce4b1a96ecf41a802b787aad1674, type: 2}
  m_StaticBatchInfo:
    firstSubMesh: 0
    subMeshCount: 0
  m_StaticBatchRoot: {fileID: 0}
  m_ProbeAnchor: {fileID: 0}
  m_LightProbeVolumeOverride: {fileID: 0}
  m_ScaleInLightmap: 1
  m_ReceiveGI: 1
  m_PreserveUVs: 0
  m_IgnoreNormalsForChartDetection: 0
  m_ImportantGI: 0
  m_StitchLightmapSeams: 1
  m_SelectedEditorRenderState: 3
  m_MinimumChartSize: 4
  m_AutoUVMaxDistance: 0.5
  m_AutoUVMaxAngle: 89
  m_LightmapParameters: {fileID: 0}
  m_SortingLayerID: 0
  m_SortingLayer: 0
  m_SortingOrder: 0
  m_AdditionalVertexStreams: {fileID: 0}
--- !u!33 &410984019
MeshFilter:
  m_ObjectHideFlags: 0
  m_CorrespondingSourceObject: {fileID: 0}
  m_PrefabInstance: {fileID: 0}
  m_PrefabAsset: {fileID: 0}
  m_GameObject: {fileID: 410984014}
  m_Mesh: {fileID: 10202, guid: 0000000000000000e000000000000000, type: 0}
--- !u!1 &421808998
GameObject:
  m_ObjectHideFlags: 0
  m_CorrespondingSourceObject: {fileID: 0}
  m_PrefabInstance: {fileID: 0}
  m_PrefabAsset: {fileID: 0}
  serializedVersion: 6
  m_Component:
  - component: {fileID: 421808999}
  - component: {fileID: 421809003}
  - component: {fileID: 421809002}
  - component: {fileID: 421809001}
  - component: {fileID: 421809000}
  m_Layer: 0
  m_Name: Cube (2)
  m_TagString: Untagged
  m_Icon: {fileID: 0}
  m_NavMeshLayer: 0
  m_StaticEditorFlags: 0
  m_IsActive: 1
--- !u!4 &421808999
Transform:
  m_ObjectHideFlags: 0
  m_CorrespondingSourceObject: {fileID: 0}
  m_PrefabInstance: {fileID: 0}
  m_PrefabAsset: {fileID: 0}
  m_GameObject: {fileID: 421808998}
  m_LocalRotation: {x: -0, y: -0, z: -0, w: 1}
  m_LocalPosition: {x: -1.082, y: -0.57984567, z: 1.8499999}
  m_LocalScale: {x: 1, y: 1, z: 1}
  m_Children: []
  m_Father: {fileID: 494791142}
  m_RootOrder: 2
  m_LocalEulerAnglesHint: {x: 0, y: 0, z: 0}
--- !u!114 &421809000
MonoBehaviour:
  m_ObjectHideFlags: 0
  m_CorrespondingSourceObject: {fileID: 0}
  m_PrefabInstance: {fileID: 0}
  m_PrefabAsset: {fileID: 0}
  m_GameObject: {fileID: 421808998}
  m_Enabled: 1
  m_EditorHideFlags: 0
  m_Script: {fileID: 11500000, guid: 506b6be486f17c24184f27e9b063d004, type: 3}
  m_Name: 
  m_EditorClassIdentifier: 
  _platform: {fileID: 421808999}
--- !u!65 &421809001
BoxCollider:
  m_ObjectHideFlags: 0
  m_CorrespondingSourceObject: {fileID: 0}
  m_PrefabInstance: {fileID: 0}
  m_PrefabAsset: {fileID: 0}
  m_GameObject: {fileID: 421808998}
  m_Material: {fileID: 0}
  m_IsTrigger: 0
  m_Enabled: 1
  serializedVersion: 2
  m_Size: {x: 1, y: 1, z: 1}
  m_Center: {x: 0, y: 0, z: 0}
--- !u!23 &421809002
MeshRenderer:
  m_ObjectHideFlags: 0
  m_CorrespondingSourceObject: {fileID: 0}
  m_PrefabInstance: {fileID: 0}
  m_PrefabAsset: {fileID: 0}
  m_GameObject: {fileID: 421808998}
  m_Enabled: 1
  m_CastShadows: 1
  m_ReceiveShadows: 1
  m_DynamicOccludee: 1
  m_MotionVectors: 1
  m_LightProbeUsage: 1
  m_ReflectionProbeUsage: 1
  m_RayTracingMode: 2
  m_RayTraceProcedural: 0
  m_RenderingLayerMask: 1
  m_RendererPriority: 0
  m_Materials:
  - {fileID: 2100000, guid: 51e5ce4b1a96ecf41a802b787aad1674, type: 2}
  m_StaticBatchInfo:
    firstSubMesh: 0
    subMeshCount: 0
  m_StaticBatchRoot: {fileID: 0}
  m_ProbeAnchor: {fileID: 0}
  m_LightProbeVolumeOverride: {fileID: 0}
  m_ScaleInLightmap: 1
  m_ReceiveGI: 1
  m_PreserveUVs: 0
  m_IgnoreNormalsForChartDetection: 0
  m_ImportantGI: 0
  m_StitchLightmapSeams: 1
  m_SelectedEditorRenderState: 3
  m_MinimumChartSize: 4
  m_AutoUVMaxDistance: 0.5
  m_AutoUVMaxAngle: 89
  m_LightmapParameters: {fileID: 0}
  m_SortingLayerID: 0
  m_SortingLayer: 0
  m_SortingOrder: 0
  m_AdditionalVertexStreams: {fileID: 0}
--- !u!33 &421809003
MeshFilter:
  m_ObjectHideFlags: 0
  m_CorrespondingSourceObject: {fileID: 0}
  m_PrefabInstance: {fileID: 0}
  m_PrefabAsset: {fileID: 0}
  m_GameObject: {fileID: 421808998}
  m_Mesh: {fileID: 10202, guid: 0000000000000000e000000000000000, type: 0}
--- !u!1 &477390519
GameObject:
  m_ObjectHideFlags: 0
  m_CorrespondingSourceObject: {fileID: 0}
  m_PrefabInstance: {fileID: 0}
  m_PrefabAsset: {fileID: 0}
  serializedVersion: 6
  m_Component:
  - component: {fileID: 477390521}
  - component: {fileID: 477390520}
  m_Layer: 0
  m_Name: Directional Light
  m_TagString: Untagged
  m_Icon: {fileID: 0}
  m_NavMeshLayer: 0
  m_StaticEditorFlags: 0
  m_IsActive: 1
--- !u!108 &477390520
Light:
  m_ObjectHideFlags: 0
  m_CorrespondingSourceObject: {fileID: 0}
  m_PrefabInstance: {fileID: 0}
  m_PrefabAsset: {fileID: 0}
  m_GameObject: {fileID: 477390519}
  m_Enabled: 1
  serializedVersion: 10
  m_Type: 1
  m_Shape: 0
  m_Color: {r: 1, g: 0.95686275, b: 0.8392157, a: 1}
  m_Intensity: 1
  m_Range: 10
  m_SpotAngle: 30
  m_InnerSpotAngle: 21.80208
  m_CookieSize: 10
  m_Shadows:
    m_Type: 2
    m_Resolution: -1
    m_CustomResolution: -1
    m_Strength: 1
    m_Bias: 0.05
    m_NormalBias: 0.4
    m_NearPlane: 0.2
    m_CullingMatrixOverride:
      e00: 1
      e01: 0
      e02: 0
      e03: 0
      e10: 0
      e11: 1
      e12: 0
      e13: 0
      e20: 0
      e21: 0
      e22: 1
      e23: 0
      e30: 0
      e31: 0
      e32: 0
      e33: 1
    m_UseCullingMatrixOverride: 0
  m_Cookie: {fileID: 0}
  m_DrawHalo: 0
  m_Flare: {fileID: 0}
  m_RenderMode: 0
  m_CullingMask:
    serializedVersion: 2
    m_Bits: 4294967295
  m_RenderingLayerMask: 1
  m_Lightmapping: 4
  m_LightShadowCasterMode: 0
  m_AreaSize: {x: 1, y: 1}
  m_BounceIntensity: 1
  m_ColorTemperature: 6570
  m_UseColorTemperature: 0
  m_BoundingSphereOverride: {x: 0, y: 0, z: 0, w: 0}
  m_UseBoundingSphereOverride: 0
  m_UseViewFrustumForShadowCasterCull: 1
  m_ShadowRadius: 0
  m_ShadowAngle: 0
--- !u!4 &477390521
Transform:
  m_ObjectHideFlags: 0
  m_CorrespondingSourceObject: {fileID: 0}
  m_PrefabInstance: {fileID: 0}
  m_PrefabAsset: {fileID: 0}
  m_GameObject: {fileID: 477390519}
  m_LocalRotation: {x: 0.40821788, y: -0.23456968, z: 0.10938163, w: 0.8754261}
  m_LocalPosition: {x: 0, y: 3, z: 0}
  m_LocalScale: {x: 1, y: 1, z: 1}
  m_Children: []
  m_Father: {fileID: 0}
  m_RootOrder: 2
  m_LocalEulerAnglesHint: {x: 50, y: -30, z: 0}
--- !u!1 &494791140
GameObject:
  m_ObjectHideFlags: 0
  m_CorrespondingSourceObject: {fileID: 0}
  m_PrefabInstance: {fileID: 0}
  m_PrefabAsset: {fileID: 0}
  serializedVersion: 6
  m_Component:
  - component: {fileID: 494791142}
  - component: {fileID: 494791141}
  m_Layer: 0
  m_Name: GameObject
  m_TagString: Untagged
  m_Icon: {fileID: 0}
  m_NavMeshLayer: 0
  m_StaticEditorFlags: 0
  m_IsActive: 1
--- !u!114 &494791141
MonoBehaviour:
  m_ObjectHideFlags: 0
  m_CorrespondingSourceObject: {fileID: 0}
  m_PrefabInstance: {fileID: 0}
  m_PrefabAsset: {fileID: 0}
  m_GameObject: {fileID: 494791140}
  m_Enabled: 1
  m_EditorHideFlags: 0
  m_Script: {fileID: 11500000, guid: 506b6be486f17c24184f27e9b063d004, type: 3}
  m_Name: 
  m_EditorClassIdentifier: 
  _platform: {fileID: 494791142}
--- !u!4 &494791142
Transform:
  m_ObjectHideFlags: 0
  m_CorrespondingSourceObject: {fileID: 0}
  m_PrefabInstance: {fileID: 0}
  m_PrefabAsset: {fileID: 0}
  m_GameObject: {fileID: 494791140}
  m_LocalRotation: {x: 0, y: 0, z: 0, w: 1}
  m_LocalPosition: {x: 0.28352767, y: 0.57984567, z: -6.8801427}
  m_LocalScale: {x: 1, y: 1, z: 1}
  m_Children:
  - {fileID: 620615533}
  - {fileID: 1825443064}
  - {fileID: 421808999}
  - {fileID: 410984015}
  m_Father: {fileID: 0}
  m_RootOrder: 7
  m_LocalEulerAnglesHint: {x: 0, y: 0, z: 0}
--- !u!114 &608738096 stripped
MonoBehaviour:
  m_CorrespondingSourceObject: {fileID: 8900286704777945646, guid: bad8b60fa6b035942bbf42dd385b13ca, type: 3}
  m_PrefabInstance: {fileID: 1539498971}
  m_PrefabAsset: {fileID: 0}
  m_GameObject: {fileID: 0}
  m_Enabled: 1
  m_EditorHideFlags: 0
  m_Script: {fileID: 11500000, guid: f4688fdb7df04437aeb418b961361dc5, type: 3}
  m_Name: 
  m_EditorClassIdentifier: 
--- !u!1 &620615532
GameObject:
  m_ObjectHideFlags: 0
  m_CorrespondingSourceObject: {fileID: 0}
  m_PrefabInstance: {fileID: 0}
  m_PrefabAsset: {fileID: 0}
  serializedVersion: 6
  m_Component:
  - component: {fileID: 620615533}
  - component: {fileID: 620615537}
  - component: {fileID: 620615536}
  - component: {fileID: 620615535}
  - component: {fileID: 620615534}
  m_Layer: 0
  m_Name: Cube
  m_TagString: Untagged
  m_Icon: {fileID: 0}
  m_NavMeshLayer: 0
  m_StaticEditorFlags: 0
  m_IsActive: 1
--- !u!4 &620615533
Transform:
  m_ObjectHideFlags: 0
  m_CorrespondingSourceObject: {fileID: 0}
  m_PrefabInstance: {fileID: 0}
  m_PrefabAsset: {fileID: 0}
  m_GameObject: {fileID: 620615532}
  m_LocalRotation: {x: -0, y: -0, z: -0, w: 1}
  m_LocalPosition: {x: -4.242, y: -0.57984567, z: 1.8499999}
  m_LocalScale: {x: 1, y: 1, z: 1}
  m_Children: []
  m_Father: {fileID: 494791142}
  m_RootOrder: 0
  m_LocalEulerAnglesHint: {x: 0, y: 0, z: 0}
--- !u!114 &620615534
MonoBehaviour:
  m_ObjectHideFlags: 0
  m_CorrespondingSourceObject: {fileID: 0}
  m_PrefabInstance: {fileID: 0}
  m_PrefabAsset: {fileID: 0}
  m_GameObject: {fileID: 620615532}
  m_Enabled: 1
  m_EditorHideFlags: 0
  m_Script: {fileID: 11500000, guid: 506b6be486f17c24184f27e9b063d004, type: 3}
  m_Name: 
  m_EditorClassIdentifier: 
  _platform: {fileID: 620615533}
--- !u!65 &620615535
BoxCollider:
  m_ObjectHideFlags: 0
  m_CorrespondingSourceObject: {fileID: 0}
  m_PrefabInstance: {fileID: 0}
  m_PrefabAsset: {fileID: 0}
  m_GameObject: {fileID: 620615532}
  m_Material: {fileID: 0}
  m_IsTrigger: 0
  m_Enabled: 1
  serializedVersion: 2
  m_Size: {x: 1, y: 1, z: 1}
  m_Center: {x: 0, y: 0, z: 0}
--- !u!23 &620615536
MeshRenderer:
  m_ObjectHideFlags: 0
  m_CorrespondingSourceObject: {fileID: 0}
  m_PrefabInstance: {fileID: 0}
  m_PrefabAsset: {fileID: 0}
  m_GameObject: {fileID: 620615532}
  m_Enabled: 1
  m_CastShadows: 1
  m_ReceiveShadows: 1
  m_DynamicOccludee: 1
  m_MotionVectors: 1
  m_LightProbeUsage: 1
  m_ReflectionProbeUsage: 1
  m_RayTracingMode: 2
  m_RayTraceProcedural: 0
  m_RenderingLayerMask: 1
  m_RendererPriority: 0
  m_Materials:
  - {fileID: 2100000, guid: 51e5ce4b1a96ecf41a802b787aad1674, type: 2}
  m_StaticBatchInfo:
    firstSubMesh: 0
    subMeshCount: 0
  m_StaticBatchRoot: {fileID: 0}
  m_ProbeAnchor: {fileID: 0}
  m_LightProbeVolumeOverride: {fileID: 0}
  m_ScaleInLightmap: 1
  m_ReceiveGI: 1
  m_PreserveUVs: 0
  m_IgnoreNormalsForChartDetection: 0
  m_ImportantGI: 0
  m_StitchLightmapSeams: 1
  m_SelectedEditorRenderState: 3
  m_MinimumChartSize: 4
  m_AutoUVMaxDistance: 0.5
  m_AutoUVMaxAngle: 89
  m_LightmapParameters: {fileID: 0}
  m_SortingLayerID: 0
  m_SortingLayer: 0
  m_SortingOrder: 0
  m_AdditionalVertexStreams: {fileID: 0}
--- !u!33 &620615537
MeshFilter:
  m_ObjectHideFlags: 0
  m_CorrespondingSourceObject: {fileID: 0}
  m_PrefabInstance: {fileID: 0}
  m_PrefabAsset: {fileID: 0}
  m_GameObject: {fileID: 620615532}
  m_Mesh: {fileID: 10202, guid: 0000000000000000e000000000000000, type: 0}
--- !u!114 &714791885 stripped
MonoBehaviour:
  m_CorrespondingSourceObject: {fileID: 136214746491797325, guid: bad8b60fa6b035942bbf42dd385b13ca, type: 3}
  m_PrefabInstance: {fileID: 1539498971}
  m_PrefabAsset: {fileID: 0}
  m_GameObject: {fileID: 0}
  m_Enabled: 1
  m_EditorHideFlags: 0
  m_Script: {fileID: 11500000, guid: 5e70530c4f342ef4db1ff3880c11754c, type: 3}
  m_Name: 
  m_EditorClassIdentifier: 
--- !u!1 &850418049
GameObject:
  m_ObjectHideFlags: 0
  m_CorrespondingSourceObject: {fileID: 0}
  m_PrefabInstance: {fileID: 0}
  m_PrefabAsset: {fileID: 0}
  serializedVersion: 6
  m_Component:
  - component: {fileID: 850418050}
  m_Layer: 0
  m_Name: GameObject (1)
  m_TagString: Untagged
  m_Icon: {fileID: 0}
  m_NavMeshLayer: 0
  m_StaticEditorFlags: 0
  m_IsActive: 1
--- !u!4 &850418050
Transform:
  m_ObjectHideFlags: 0
  m_CorrespondingSourceObject: {fileID: 0}
  m_PrefabInstance: {fileID: 0}
  m_PrefabAsset: {fileID: 0}
  m_GameObject: {fileID: 850418049}
  m_LocalRotation: {x: 0, y: 0, z: 0, w: 1}
  m_LocalPosition: {x: -3.9584723, y: 0, z: -5.030143}
  m_LocalScale: {x: 1, y: 1, z: 1}
  m_Children: []
  m_Father: {fileID: 0}
  m_RootOrder: 9
  m_LocalEulerAnglesHint: {x: 0, y: 0, z: 0}
--- !u!1 &965221691
GameObject:
  m_ObjectHideFlags: 0
  m_CorrespondingSourceObject: {fileID: 0}
  m_PrefabInstance: {fileID: 0}
  m_PrefabAsset: {fileID: 0}
  serializedVersion: 6
  m_Component:
  - component: {fileID: 965221695}
  - component: {fileID: 965221694}
  - component: {fileID: 965221693}
  - component: {fileID: 965221692}
  m_Layer: 0
  m_Name: Plane
  m_TagString: Untagged
  m_Icon: {fileID: 0}
  m_NavMeshLayer: 0
  m_StaticEditorFlags: 0
  m_IsActive: 1
--- !u!64 &965221692
MeshCollider:
  m_ObjectHideFlags: 0
  m_CorrespondingSourceObject: {fileID: 0}
  m_PrefabInstance: {fileID: 0}
  m_PrefabAsset: {fileID: 0}
  m_GameObject: {fileID: 965221691}
  m_Material: {fileID: 0}
  m_IsTrigger: 0
  m_Enabled: 1
  serializedVersion: 4
  m_Convex: 0
  m_CookingOptions: 30
  m_Mesh: {fileID: 10209, guid: 0000000000000000e000000000000000, type: 0}
--- !u!23 &965221693
MeshRenderer:
  m_ObjectHideFlags: 0
  m_CorrespondingSourceObject: {fileID: 0}
  m_PrefabInstance: {fileID: 0}
  m_PrefabAsset: {fileID: 0}
  m_GameObject: {fileID: 965221691}
  m_Enabled: 1
  m_CastShadows: 1
  m_ReceiveShadows: 1
  m_DynamicOccludee: 1
  m_MotionVectors: 1
  m_LightProbeUsage: 1
  m_ReflectionProbeUsage: 1
  m_RayTracingMode: 2
  m_RayTraceProcedural: 0
  m_RenderingLayerMask: 1
  m_RendererPriority: 0
  m_Materials:
  - {fileID: 2100000, guid: ab037864e3ab77e45af66143b479a002, type: 2}
  m_StaticBatchInfo:
    firstSubMesh: 0
    subMeshCount: 0
  m_StaticBatchRoot: {fileID: 0}
  m_ProbeAnchor: {fileID: 0}
  m_LightProbeVolumeOverride: {fileID: 0}
  m_ScaleInLightmap: 1
  m_ReceiveGI: 1
  m_PreserveUVs: 0
  m_IgnoreNormalsForChartDetection: 0
  m_ImportantGI: 0
  m_StitchLightmapSeams: 1
  m_SelectedEditorRenderState: 3
  m_MinimumChartSize: 4
  m_AutoUVMaxDistance: 0.5
  m_AutoUVMaxAngle: 89
  m_LightmapParameters: {fileID: 0}
  m_SortingLayerID: 0
  m_SortingLayer: 0
  m_SortingOrder: 0
  m_AdditionalVertexStreams: {fileID: 0}
--- !u!33 &965221694
MeshFilter:
  m_ObjectHideFlags: 0
  m_CorrespondingSourceObject: {fileID: 0}
  m_PrefabInstance: {fileID: 0}
  m_PrefabAsset: {fileID: 0}
  m_GameObject: {fileID: 965221691}
  m_Mesh: {fileID: 10209, guid: 0000000000000000e000000000000000, type: 0}
--- !u!4 &965221695
Transform:
  m_ObjectHideFlags: 0
  m_CorrespondingSourceObject: {fileID: 0}
  m_PrefabInstance: {fileID: 0}
  m_PrefabAsset: {fileID: 0}
  m_GameObject: {fileID: 965221691}
  m_LocalRotation: {x: 0, y: 0, z: 0, w: 1}
  m_LocalPosition: {x: 0, y: 0, z: 0.134}
  m_LocalScale: {x: 1, y: 1, z: 1.9653933}
  m_Children: []
  m_Father: {fileID: 0}
  m_RootOrder: 3
  m_LocalEulerAnglesHint: {x: 0, y: 0, z: 0}
--- !u!1 &1048148091
GameObject:
  m_ObjectHideFlags: 0
  m_CorrespondingSourceObject: {fileID: 0}
  m_PrefabInstance: {fileID: 0}
  m_PrefabAsset: {fileID: 0}
  serializedVersion: 6
  m_Component:
  - component: {fileID: 1048148094}
  - component: {fileID: 1048148093}
  - component: {fileID: 1048148092}
  - component: {fileID: 1048148095}
  m_Layer: 0
  m_Name: Main Camera
  m_TagString: MainCamera
  m_Icon: {fileID: 0}
  m_NavMeshLayer: 0
  m_StaticEditorFlags: 0
  m_IsActive: 1
--- !u!81 &1048148092
AudioListener:
  m_ObjectHideFlags: 0
  m_CorrespondingSourceObject: {fileID: 0}
  m_PrefabInstance: {fileID: 0}
  m_PrefabAsset: {fileID: 0}
  m_GameObject: {fileID: 1048148091}
  m_Enabled: 1
--- !u!20 &1048148093
Camera:
  m_ObjectHideFlags: 0
  m_CorrespondingSourceObject: {fileID: 0}
  m_PrefabInstance: {fileID: 0}
  m_PrefabAsset: {fileID: 0}
  m_GameObject: {fileID: 1048148091}
  m_Enabled: 1
  serializedVersion: 2
  m_ClearFlags: 1
  m_BackGroundColor: {r: 0.19215687, g: 0.3019608, b: 0.4745098, a: 0}
  m_projectionMatrixMode: 1
  m_GateFitMode: 2
  m_FOVAxisMode: 0
  m_SensorSize: {x: 36, y: 24}
  m_LensShift: {x: 0, y: 0}
  m_FocalLength: 50
  m_NormalizedViewPortRect:
    serializedVersion: 2
    x: 0
    y: 0
    width: 1
    height: 1
  near clip plane: 0.3
  far clip plane: 1000
  field of view: 60
  orthographic: 0
  orthographic size: 5
  m_Depth: -1
  m_CullingMask:
    serializedVersion: 2
    m_Bits: 4294967295
  m_RenderingPath: -1
  m_TargetTexture: {fileID: 0}
  m_TargetDisplay: 0
  m_TargetEye: 3
  m_HDR: 1
  m_AllowMSAA: 1
  m_AllowDynamicResolution: 0
  m_ForceIntoRT: 0
  m_OcclusionCulling: 1
  m_StereoConvergence: 10
  m_StereoSeparation: 0.022
--- !u!4 &1048148094
Transform:
  m_ObjectHideFlags: 0
  m_CorrespondingSourceObject: {fileID: 0}
  m_PrefabInstance: {fileID: 0}
  m_PrefabAsset: {fileID: 0}
  m_GameObject: {fileID: 1048148091}
  m_LocalRotation: {x: 0.31728655, y: -0.30714577, z: 0.13904852, w: 0.88637257}
  m_LocalPosition: {x: 3.43, y: 4.96, z: -7.98}
  m_LocalScale: {x: 1, y: 1, z: 1}
  m_Children: []
  m_Father: {fileID: 0}
  m_RootOrder: 0
  m_LocalEulerAnglesHint: {x: 40.382, y: -36.796, z: 3.884}
--- !u!114 &1048148095
MonoBehaviour:
  m_ObjectHideFlags: 0
  m_CorrespondingSourceObject: {fileID: 0}
  m_PrefabInstance: {fileID: 0}
  m_PrefabAsset: {fileID: 0}
  m_GameObject: {fileID: 1048148091}
  m_Enabled: 1
  m_EditorHideFlags: 0
  m_Script: {fileID: 11500000, guid: c49b4cc203aa6414fae5c798d1d0e7d6, type: 3}
  m_Name: 
  m_EditorClassIdentifier: 
  m_EventMask:
    serializedVersion: 2
    m_Bits: 4294967295
  m_MaxRayIntersections: 0
--- !u!114 &1293461293 stripped
MonoBehaviour:
  m_CorrespondingSourceObject: {fileID: 8900286706138331929, guid: bad8b60fa6b035942bbf42dd385b13ca, type: 3}
  m_PrefabInstance: {fileID: 1539498971}
  m_PrefabAsset: {fileID: 0}
  m_GameObject: {fileID: 0}
  m_Enabled: 1
  m_EditorHideFlags: 0
  m_Script: {fileID: 11500000, guid: 4e29b1a8efbd4b44bb3f3716e73f07ff, type: 3}
  m_Name: 
  m_EditorClassIdentifier: 
--- !u!114 &1309261754 stripped
MonoBehaviour:
  m_CorrespondingSourceObject: {fileID: 8900286705552776416, guid: bad8b60fa6b035942bbf42dd385b13ca, type: 3}
  m_PrefabInstance: {fileID: 1539498971}
  m_PrefabAsset: {fileID: 0}
  m_GameObject: {fileID: 0}
  m_Enabled: 1
  m_EditorHideFlags: 0
  m_Script: {fileID: 11500000, guid: f4688fdb7df04437aeb418b961361dc5, type: 3}
  m_Name: 
  m_EditorClassIdentifier: 
--- !u!114 &1485351335 stripped
MonoBehaviour:
  m_CorrespondingSourceObject: {fileID: 8900286704116473402, guid: bad8b60fa6b035942bbf42dd385b13ca, type: 3}
  m_PrefabInstance: {fileID: 1539498971}
  m_PrefabAsset: {fileID: 0}
  m_GameObject: {fileID: 0}
  m_Enabled: 1
  m_EditorHideFlags: 0
  m_Script: {fileID: 11500000, guid: f4688fdb7df04437aeb418b961361dc5, type: 3}
  m_Name: 
  m_EditorClassIdentifier: 
--- !u!1 &1509568465
GameObject:
  m_ObjectHideFlags: 0
  m_CorrespondingSourceObject: {fileID: 0}
  m_PrefabInstance: {fileID: 0}
  m_PrefabAsset: {fileID: 0}
  serializedVersion: 6
  m_Component:
  - component: {fileID: 1509568468}
  - component: {fileID: 1509568467}
  - component: {fileID: 1509568466}
  m_Layer: 0
  m_Name: EventSystem
  m_TagString: Untagged
  m_Icon: {fileID: 0}
  m_NavMeshLayer: 0
  m_StaticEditorFlags: 0
  m_IsActive: 1
--- !u!114 &1509568466
MonoBehaviour:
  m_ObjectHideFlags: 0
  m_CorrespondingSourceObject: {fileID: 0}
  m_PrefabInstance: {fileID: 0}
  m_PrefabAsset: {fileID: 0}
  m_GameObject: {fileID: 1509568465}
  m_Enabled: 1
  m_EditorHideFlags: 0
  m_Script: {fileID: 11500000, guid: 4f231c4fb786f3946a6b90b886c48677, type: 3}
  m_Name: 
  m_EditorClassIdentifier: 
  m_HorizontalAxis: Horizontal
  m_VerticalAxis: Vertical
  m_SubmitButton: Submit
  m_CancelButton: Cancel
  m_InputActionsPerSecond: 10
  m_RepeatDelay: 0.5
  m_ForceModuleActive: 0
--- !u!114 &1509568467
MonoBehaviour:
  m_ObjectHideFlags: 0
  m_CorrespondingSourceObject: {fileID: 0}
  m_PrefabInstance: {fileID: 0}
  m_PrefabAsset: {fileID: 0}
  m_GameObject: {fileID: 1509568465}
  m_Enabled: 1
  m_EditorHideFlags: 0
  m_Script: {fileID: 11500000, guid: 76c392e42b5098c458856cdf6ecaaaa1, type: 3}
  m_Name: 
  m_EditorClassIdentifier: 
  m_FirstSelected: {fileID: 0}
  m_sendNavigationEvents: 1
  m_DragThreshold: 10
--- !u!4 &1509568468
Transform:
  m_ObjectHideFlags: 0
  m_CorrespondingSourceObject: {fileID: 0}
  m_PrefabInstance: {fileID: 0}
  m_PrefabAsset: {fileID: 0}
  m_GameObject: {fileID: 1509568465}
  m_LocalRotation: {x: 0, y: 0, z: 0, w: 1}
  m_LocalPosition: {x: 0, y: 0, z: 0}
  m_LocalScale: {x: 1, y: 1, z: 1}
  m_Children: []
  m_Father: {fileID: 0}
  m_RootOrder: 1
  m_LocalEulerAnglesHint: {x: 0, y: 0, z: 0}
--- !u!1001 &1539498971
PrefabInstance:
  m_ObjectHideFlags: 0
  serializedVersion: 2
  m_Modification:
    m_TransformParent: {fileID: 0}
    m_Modifications:
    - target: {fileID: 136214746491797325, guid: bad8b60fa6b035942bbf42dd385b13ca, type: 3}
      propertyPath: _button
      value: 
      objectReference: {fileID: 1639736169}
    - target: {fileID: 136214746491797325, guid: bad8b60fa6b035942bbf42dd385b13ca, type: 3}
      propertyPath: _building
      value: 
      objectReference: {fileID: 0}
    - target: {fileID: 136214746491797325, guid: bad8b60fa6b035942bbf42dd385b13ca, type: 3}
      propertyPath: _crystalBank
      value: 
      objectReference: {fileID: 11400000, guid: abd3b2493ce4e4f43bdb4d77a69f4b01, type: 2}
    - target: {fileID: 136214746491797325, guid: bad8b60fa6b035942bbf42dd385b13ca, type: 3}
      propertyPath: _dataAntiTank
      value: 
      objectReference: {fileID: 11400000, guid: c960739579532c94d9a27851f5c17a40, type: 2}
    - target: {fileID: 136214746491797325, guid: bad8b60fa6b035942bbf42dd385b13ca, type: 3}
      propertyPath: _buttonAntiFly
      value: 
      objectReference: {fileID: 1293461293}
    - target: {fileID: 136214746491797325, guid: bad8b60fa6b035942bbf42dd385b13ca, type: 3}
      propertyPath: _buttonMachine
      value: 
      objectReference: {fileID: 1583626401}
    - target: {fileID: 136214746491797325, guid: bad8b60fa6b035942bbf42dd385b13ca, type: 3}
      propertyPath: _buttonAntiTank
      value: 
      objectReference: {fileID: 263484094}
    - target: {fileID: 136214746491797325, guid: bad8b60fa6b035942bbf42dd385b13ca, type: 3}
      propertyPath: _towerSelection
      value: 
      objectReference: {fileID: 0}
    - target: {fileID: 136214746491797325, guid: bad8b60fa6b035942bbf42dd385b13ca, type: 3}
      propertyPath: _buttonPlazmagan
      value: 
      objectReference: {fileID: 1639736169}
    - target: {fileID: 136214746491797325, guid: bad8b60fa6b035942bbf42dd385b13ca, type: 3}
      propertyPath: _dataAntiFlyTower
      value: 
      objectReference: {fileID: 11400000, guid: e3a55a17f7032df4392dd2d2f40fecbd, type: 2}
    - target: {fileID: 136214746491797325, guid: bad8b60fa6b035942bbf42dd385b13ca, type: 3}
      propertyPath: _dataMachineTower
      value: 
      objectReference: {fileID: 11400000, guid: c24cd283ce04a574f80ebf568feac179, type: 2}
    - target: {fileID: 136214746491797325, guid: bad8b60fa6b035942bbf42dd385b13ca, type: 3}
      propertyPath: _platformForTower
      value: 
      objectReference: {fileID: 421809000}
    - target: {fileID: 136214746491797325, guid: bad8b60fa6b035942bbf42dd385b13ca, type: 3}
      propertyPath: _dataPlazmaganTower
      value: 
      objectReference: {fileID: 11400000, guid: e9c3c19811b36b3478eb80860fcd8f02, type: 2}
    - target: {fileID: 136214746491797325, guid: bad8b60fa6b035942bbf42dd385b13ca, type: 3}
      propertyPath: _towerAntiFlyLevelOne
      value: 
      objectReference: {fileID: 11400000, guid: c960739579532c94d9a27851f5c17a40, type: 2}
    - target: {fileID: 136214746491797325, guid: bad8b60fa6b035942bbf42dd385b13ca, type: 3}
      propertyPath: _towerMachineLevelOne
      value: 
      objectReference: {fileID: 11400000, guid: c24cd283ce04a574f80ebf568feac179, type: 2}
    - target: {fileID: 136214746491797325, guid: bad8b60fa6b035942bbf42dd385b13ca, type: 3}
      propertyPath: _towerAntiTankLevelOne
      value: 
      objectReference: {fileID: 11400000, guid: c960739579532c94d9a27851f5c17a40, type: 2}
    - target: {fileID: 136214746491797325, guid: bad8b60fa6b035942bbf42dd385b13ca, type: 3}
      propertyPath: _towerPlazmaganLevelOne
      value: 
      objectReference: {fileID: 11400000, guid: e9c3c19811b36b3478eb80860fcd8f02, type: 2}
    - target: {fileID: 136214746491797325, guid: bad8b60fa6b035942bbf42dd385b13ca, type: 3}
      propertyPath: _dataAntiAirStrikeFlyTower
      value: 
      objectReference: {fileID: 11400000, guid: e3a55a17f7032df4392dd2d2f40fecbd, type: 2}
    - target: {fileID: 448845458545668061, guid: bad8b60fa6b035942bbf42dd385b13ca, type: 3}
      propertyPath: _button
      value: 
      objectReference: {fileID: 1293461293}
    - target: {fileID: 448845458545668061, guid: bad8b60fa6b035942bbf42dd385b13ca, type: 3}
      propertyPath: _building
      value: 
      objectReference: {fileID: 0}
    - target: {fileID: 448845458545668061, guid: bad8b60fa6b035942bbf42dd385b13ca, type: 3}
      propertyPath: _crystalBank
      value: 
      objectReference: {fileID: 11400000, guid: abd3b2493ce4e4f43bdb4d77a69f4b01, type: 2}
    - target: {fileID: 448845458545668061, guid: bad8b60fa6b035942bbf42dd385b13ca, type: 3}
      propertyPath: _dataAntiTank
      value: 
      objectReference: {fileID: 11400000, guid: c960739579532c94d9a27851f5c17a40, type: 2}
    - target: {fileID: 448845458545668061, guid: bad8b60fa6b035942bbf42dd385b13ca, type: 3}
      propertyPath: _buttonAntiFly
      value: 
      objectReference: {fileID: 1293461293}
    - target: {fileID: 448845458545668061, guid: bad8b60fa6b035942bbf42dd385b13ca, type: 3}
      propertyPath: _buttonMachine
      value: 
      objectReference: {fileID: 1583626401}
    - target: {fileID: 448845458545668061, guid: bad8b60fa6b035942bbf42dd385b13ca, type: 3}
      propertyPath: _buttonAntiTank
      value: 
      objectReference: {fileID: 263484094}
    - target: {fileID: 448845458545668061, guid: bad8b60fa6b035942bbf42dd385b13ca, type: 3}
      propertyPath: _towerSelection
      value: 
      objectReference: {fileID: 0}
    - target: {fileID: 448845458545668061, guid: bad8b60fa6b035942bbf42dd385b13ca, type: 3}
      propertyPath: _buttonPlazmagan
      value: 
      objectReference: {fileID: 1639736169}
    - target: {fileID: 448845458545668061, guid: bad8b60fa6b035942bbf42dd385b13ca, type: 3}
      propertyPath: _dataAntiFlyTower
      value: 
      objectReference: {fileID: 11400000, guid: e3a55a17f7032df4392dd2d2f40fecbd, type: 2}
    - target: {fileID: 448845458545668061, guid: bad8b60fa6b035942bbf42dd385b13ca, type: 3}
      propertyPath: _dataMachineTower
      value: 
      objectReference: {fileID: 11400000, guid: c24cd283ce04a574f80ebf568feac179, type: 2}
    - target: {fileID: 448845458545668061, guid: bad8b60fa6b035942bbf42dd385b13ca, type: 3}
      propertyPath: _platformForTower
      value: 
      objectReference: {fileID: 410984016}
    - target: {fileID: 448845458545668061, guid: bad8b60fa6b035942bbf42dd385b13ca, type: 3}
      propertyPath: _dataPlazmaganTower
      value: 
      objectReference: {fileID: 11400000, guid: e9c3c19811b36b3478eb80860fcd8f02, type: 2}
    - target: {fileID: 448845458545668061, guid: bad8b60fa6b035942bbf42dd385b13ca, type: 3}
      propertyPath: _towerAntiFlyLevelOne
      value: 
      objectReference: {fileID: 11400000, guid: c960739579532c94d9a27851f5c17a40, type: 2}
    - target: {fileID: 448845458545668061, guid: bad8b60fa6b035942bbf42dd385b13ca, type: 3}
      propertyPath: _towerMachineLevelOne
      value: 
      objectReference: {fileID: 11400000, guid: c24cd283ce04a574f80ebf568feac179, type: 2}
    - target: {fileID: 448845458545668061, guid: bad8b60fa6b035942bbf42dd385b13ca, type: 3}
      propertyPath: _towerAntiTankLevelOne
      value: 
      objectReference: {fileID: 11400000, guid: c960739579532c94d9a27851f5c17a40, type: 2}
    - target: {fileID: 448845458545668061, guid: bad8b60fa6b035942bbf42dd385b13ca, type: 3}
      propertyPath: _towerPlazmaganLevelOne
      value: 
      objectReference: {fileID: 11400000, guid: e9c3c19811b36b3478eb80860fcd8f02, type: 2}
    - target: {fileID: 448845458545668061, guid: bad8b60fa6b035942bbf42dd385b13ca, type: 3}
      propertyPath: _dataAntiAirStrikeFlyTower
      value: 
      objectReference: {fileID: 11400000, guid: e3a55a17f7032df4392dd2d2f40fecbd, type: 2}
    - target: {fileID: 8688154072026126876, guid: bad8b60fa6b035942bbf42dd385b13ca, type: 3}
      propertyPath: _button
      value: 
      objectReference: {fileID: 1583626401}
    - target: {fileID: 8688154072026126876, guid: bad8b60fa6b035942bbf42dd385b13ca, type: 3}
      propertyPath: _building
      value: 
      objectReference: {fileID: 0}
    - target: {fileID: 8688154072026126876, guid: bad8b60fa6b035942bbf42dd385b13ca, type: 3}
      propertyPath: _crystalBank
      value: 
      objectReference: {fileID: 11400000, guid: abd3b2493ce4e4f43bdb4d77a69f4b01, type: 2}
    - target: {fileID: 8688154072026126876, guid: bad8b60fa6b035942bbf42dd385b13ca, type: 3}
      propertyPath: _dataAntiTank
      value: 
      objectReference: {fileID: 11400000, guid: c960739579532c94d9a27851f5c17a40, type: 2}
    - target: {fileID: 8688154072026126876, guid: bad8b60fa6b035942bbf42dd385b13ca, type: 3}
      propertyPath: _buttonAntiFly
      value: 
      objectReference: {fileID: 1293461293}
    - target: {fileID: 8688154072026126876, guid: bad8b60fa6b035942bbf42dd385b13ca, type: 3}
      propertyPath: _buttonMachine
      value: 
      objectReference: {fileID: 1583626401}
    - target: {fileID: 8688154072026126876, guid: bad8b60fa6b035942bbf42dd385b13ca, type: 3}
      propertyPath: _buttonAntiTank
      value: 
      objectReference: {fileID: 263484094}
    - target: {fileID: 8688154072026126876, guid: bad8b60fa6b035942bbf42dd385b13ca, type: 3}
      propertyPath: _towerSelection
      value: 
      objectReference: {fileID: 0}
    - target: {fileID: 8688154072026126876, guid: bad8b60fa6b035942bbf42dd385b13ca, type: 3}
      propertyPath: _buttonPlazmagan
      value: 
      objectReference: {fileID: 1639736169}
    - target: {fileID: 8688154072026126876, guid: bad8b60fa6b035942bbf42dd385b13ca, type: 3}
      propertyPath: _dataAntiFlyTower
      value: 
      objectReference: {fileID: 11400000, guid: e3a55a17f7032df4392dd2d2f40fecbd, type: 2}
    - target: {fileID: 8688154072026126876, guid: bad8b60fa6b035942bbf42dd385b13ca, type: 3}
      propertyPath: _dataMachineTower
      value: 
      objectReference: {fileID: 11400000, guid: c24cd283ce04a574f80ebf568feac179, type: 2}
    - target: {fileID: 8688154072026126876, guid: bad8b60fa6b035942bbf42dd385b13ca, type: 3}
      propertyPath: _platformForTower
      value: 
      objectReference: {fileID: 620615534}
    - target: {fileID: 8688154072026126876, guid: bad8b60fa6b035942bbf42dd385b13ca, type: 3}
      propertyPath: _dataPlazmaganTower
      value: 
      objectReference: {fileID: 11400000, guid: e9c3c19811b36b3478eb80860fcd8f02, type: 2}
    - target: {fileID: 8688154072026126876, guid: bad8b60fa6b035942bbf42dd385b13ca, type: 3}
      propertyPath: _towerAntiFlyLevelOne
      value: 
      objectReference: {fileID: 11400000, guid: c960739579532c94d9a27851f5c17a40, type: 2}
    - target: {fileID: 8688154072026126876, guid: bad8b60fa6b035942bbf42dd385b13ca, type: 3}
      propertyPath: _towerMachineLevelOne
      value: 
      objectReference: {fileID: 11400000, guid: c24cd283ce04a574f80ebf568feac179, type: 2}
    - target: {fileID: 8688154072026126876, guid: bad8b60fa6b035942bbf42dd385b13ca, type: 3}
      propertyPath: _towerAntiTankLevelOne
      value: 
      objectReference: {fileID: 11400000, guid: c960739579532c94d9a27851f5c17a40, type: 2}
    - target: {fileID: 8688154072026126876, guid: bad8b60fa6b035942bbf42dd385b13ca, type: 3}
      propertyPath: _towerPlazmaganLevelOne
      value: 
      objectReference: {fileID: 11400000, guid: e9c3c19811b36b3478eb80860fcd8f02, type: 2}
    - target: {fileID: 8688154072026126876, guid: bad8b60fa6b035942bbf42dd385b13ca, type: 3}
      propertyPath: _dataAntiAirStrikeFlyTower
      value: 
      objectReference: {fileID: 11400000, guid: e3a55a17f7032df4392dd2d2f40fecbd, type: 2}
    - target: {fileID: 8900286704082047915, guid: bad8b60fa6b035942bbf42dd385b13ca, type: 3}
      propertyPath: m_Sprite
      value: 
      objectReference: {fileID: 21300000, guid: bfab3c362dadd84488bbdded25ba9937, type: 3}
    - target: {fileID: 8900286704184576587, guid: bad8b60fa6b035942bbf42dd385b13ca, type: 3}
      propertyPath: m_Sprite
      value: 
      objectReference: {fileID: 21300000, guid: 85469b1d4e1caa94b971813af55a755f, type: 3}
    - target: {fileID: 8900286704695342087, guid: bad8b60fa6b035942bbf42dd385b13ca, type: 3}
      propertyPath: m_Type
      value: 3
      objectReference: {fileID: 0}
    - target: {fileID: 8900286704695342087, guid: bad8b60fa6b035942bbf42dd385b13ca, type: 3}
      propertyPath: m_Sprite
      value: 
      objectReference: {fileID: 21300000, guid: 4a2951d01b68406428d4a4e96b77c256, type: 3}
    - target: {fileID: 8900286704695342087, guid: bad8b60fa6b035942bbf42dd385b13ca, type: 3}
      propertyPath: m_FillAmount
      value: 1
      objectReference: {fileID: 0}
    - target: {fileID: 8900286704695342087, guid: bad8b60fa6b035942bbf42dd385b13ca, type: 3}
      propertyPath: m_FillMethod
      value: 1
      objectReference: {fileID: 0}
    - target: {fileID: 8900286704695342087, guid: bad8b60fa6b035942bbf42dd385b13ca, type: 3}
      propertyPath: m_FillOrigin
      value: 0
      objectReference: {fileID: 0}
    - target: {fileID: 8900286704695342087, guid: bad8b60fa6b035942bbf42dd385b13ca, type: 3}
      propertyPath: m_UseSpriteMesh
      value: 0
      objectReference: {fileID: 0}
    - target: {fileID: 8900286704695342087, guid: bad8b60fa6b035942bbf42dd385b13ca, type: 3}
      propertyPath: m_PreserveAspect
      value: 0
      objectReference: {fileID: 0}
    - target: {fileID: 8900286704731578720, guid: bad8b60fa6b035942bbf42dd385b13ca, type: 3}
      propertyPath: m_Sprite
      value: 
      objectReference: {fileID: 21300000, guid: a26ed5d228ec89f41b64960763f24f21, type: 3}
    - target: {fileID: 8900286704731578723, guid: bad8b60fa6b035942bbf42dd385b13ca, type: 3}
      propertyPath: m_Interactable
      value: 1
      objectReference: {fileID: 0}
    - target: {fileID: 8900286704731578723, guid: bad8b60fa6b035942bbf42dd385b13ca, type: 3}
      propertyPath: m_OnClick.m_PersistentCalls.m_Calls.Array.size
      value: 1
      objectReference: {fileID: 0}
    - target: {fileID: 8900286704731578723, guid: bad8b60fa6b035942bbf42dd385b13ca, type: 3}
      propertyPath: m_OnClick.m_PersistentCalls.m_Calls.Array.data[0].m_Mode
      value: 1
      objectReference: {fileID: 0}
    - target: {fileID: 8900286704731578723, guid: bad8b60fa6b035942bbf42dd385b13ca, type: 3}
      propertyPath: m_OnClick.m_PersistentCalls.m_Calls.Array.data[0].m_Target
      value: 
      objectReference: {fileID: 1950949499}
    - target: {fileID: 8900286704731578723, guid: bad8b60fa6b035942bbf42dd385b13ca, type: 3}
      propertyPath: m_OnClick.m_PersistentCalls.m_Calls.Array.data[0].m_CallState
      value: 2
      objectReference: {fileID: 0}
    - target: {fileID: 8900286704731578723, guid: bad8b60fa6b035942bbf42dd385b13ca, type: 3}
      propertyPath: m_OnClick.m_PersistentCalls.m_Calls.Array.data[0].m_MethodName
      value: SendLinkFromBuildTower
      objectReference: {fileID: 0}
    - target: {fileID: 8900286704731578723, guid: bad8b60fa6b035942bbf42dd385b13ca, type: 3}
      propertyPath: m_OnClick.m_PersistentCalls.m_Calls.Array.data[0].m_TargetAssemblyTypeName
      value: ButtonFromBilldingTower, Assembly-CSharp
      objectReference: {fileID: 0}
    - target: {fileID: 8900286704731578723, guid: bad8b60fa6b035942bbf42dd385b13ca, type: 3}
      propertyPath: m_OnClick.m_PersistentCalls.m_Calls.Array.data[0].m_Arguments.m_ObjectArgumentAssemblyTypeName
      value: UnityEngine.Object, UnityEngine
      objectReference: {fileID: 0}
    - target: {fileID: 8900286704884773289, guid: bad8b60fa6b035942bbf42dd385b13ca, type: 3}
      propertyPath: m_fontColor.b
      value: 1
      objectReference: {fileID: 0}
    - target: {fileID: 8900286704884773289, guid: bad8b60fa6b035942bbf42dd385b13ca, type: 3}
      propertyPath: m_fontColor.g
      value: 1
      objectReference: {fileID: 0}
    - target: {fileID: 8900286704884773289, guid: bad8b60fa6b035942bbf42dd385b13ca, type: 3}
      propertyPath: m_fontColor.r
      value: 1
      objectReference: {fileID: 0}
    - target: {fileID: 8900286704884773289, guid: bad8b60fa6b035942bbf42dd385b13ca, type: 3}
      propertyPath: m_fontColor32.rgba
      value: 4294967295
      objectReference: {fileID: 0}
    - target: {fileID: 8900286704955789944, guid: bad8b60fa6b035942bbf42dd385b13ca, type: 3}
      propertyPath: m_Interactable
      value: 1
      objectReference: {fileID: 0}
    - target: {fileID: 8900286704955789944, guid: bad8b60fa6b035942bbf42dd385b13ca, type: 3}
      propertyPath: m_OnClick.m_PersistentCalls.m_Calls.Array.size
      value: 1
      objectReference: {fileID: 0}
    - target: {fileID: 8900286704955789944, guid: bad8b60fa6b035942bbf42dd385b13ca, type: 3}
      propertyPath: m_OnClick.m_PersistentCalls.m_Calls.Array.data[0].m_Mode
      value: 1
      objectReference: {fileID: 0}
    - target: {fileID: 8900286704955789944, guid: bad8b60fa6b035942bbf42dd385b13ca, type: 3}
      propertyPath: m_OnClick.m_PersistentCalls.m_Calls.Array.data[0].m_Target
      value: 
      objectReference: {fileID: 714791885}
    - target: {fileID: 8900286704955789944, guid: bad8b60fa6b035942bbf42dd385b13ca, type: 3}
      propertyPath: m_OnClick.m_PersistentCalls.m_Calls.Array.data[0].m_CallState
      value: 2
      objectReference: {fileID: 0}
    - target: {fileID: 8900286704955789944, guid: bad8b60fa6b035942bbf42dd385b13ca, type: 3}
      propertyPath: m_OnClick.m_PersistentCalls.m_Calls.Array.data[0].m_MethodName
      value: SendLinkFromBuildTower
      objectReference: {fileID: 0}
    - target: {fileID: 8900286704955789944, guid: bad8b60fa6b035942bbf42dd385b13ca, type: 3}
      propertyPath: m_OnClick.m_PersistentCalls.m_Calls.Array.data[0].m_TargetAssemblyTypeName
      value: ButtonFromBilldingTower, Assembly-CSharp
      objectReference: {fileID: 0}
    - target: {fileID: 8900286704955789944, guid: bad8b60fa6b035942bbf42dd385b13ca, type: 3}
      propertyPath: m_OnClick.m_PersistentCalls.m_Calls.Array.data[0].m_Arguments.m_ObjectArgumentAssemblyTypeName
      value: UnityEngine.Object, UnityEngine
      objectReference: {fileID: 0}
    - target: {fileID: 8900286704955789945, guid: bad8b60fa6b035942bbf42dd385b13ca, type: 3}
      propertyPath: m_Sprite
      value: 
      objectReference: {fileID: 21300000, guid: 0677a6f49b34da64ba7da1dbfe301679, type: 3}
    - target: {fileID: 8900286705010326950, guid: bad8b60fa6b035942bbf42dd385b13ca, type: 3}
      propertyPath: m_Type
      value: 3
      objectReference: {fileID: 0}
    - target: {fileID: 8900286705010326950, guid: bad8b60fa6b035942bbf42dd385b13ca, type: 3}
      propertyPath: m_Sprite
      value: 
      objectReference: {fileID: 21300000, guid: a691e0bda47fc9d42b972689d7d94e43, type: 3}
    - target: {fileID: 8900286705306350499, guid: bad8b60fa6b035942bbf42dd385b13ca, type: 3}
      propertyPath: m_Sprite
      value: 
      objectReference: {fileID: 21300000, guid: c90452690f96b914bab30c14d7bf20d2, type: 3}
    - target: {fileID: 8900286705438972271, guid: bad8b60fa6b035942bbf42dd385b13ca, type: 3}
      propertyPath: m_Sprite
      value: 
      objectReference: {fileID: 21300000, guid: c90452690f96b914bab30c14d7bf20d2, type: 3}
    - target: {fileID: 8900286705811658456, guid: bad8b60fa6b035942bbf42dd385b13ca, type: 3}
      propertyPath: m_Sprite
      value: 
      objectReference: {fileID: 21300000, guid: c90452690f96b914bab30c14d7bf20d2, type: 3}
    - target: {fileID: 8900286706033546817, guid: bad8b60fa6b035942bbf42dd385b13ca, type: 3}
      propertyPath: m_Interactable
      value: 1
      objectReference: {fileID: 0}
    - target: {fileID: 8900286706033546817, guid: bad8b60fa6b035942bbf42dd385b13ca, type: 3}
      propertyPath: m_OnClick.m_PersistentCalls.m_Calls.Array.size
      value: 1
      objectReference: {fileID: 0}
    - target: {fileID: 8900286706033546817, guid: bad8b60fa6b035942bbf42dd385b13ca, type: 3}
      propertyPath: m_OnClick.m_PersistentCalls.m_Calls.Array.data[0].m_Mode
      value: 1
      objectReference: {fileID: 0}
    - target: {fileID: 8900286706033546817, guid: bad8b60fa6b035942bbf42dd385b13ca, type: 3}
      propertyPath: m_OnClick.m_PersistentCalls.m_Calls.Array.data[0].m_Target
      value: 
      objectReference: {fileID: 352004870}
    - target: {fileID: 8900286706033546817, guid: bad8b60fa6b035942bbf42dd385b13ca, type: 3}
      propertyPath: m_OnClick.m_PersistentCalls.m_Calls.Array.data[0].m_CallState
      value: 2
      objectReference: {fileID: 0}
    - target: {fileID: 8900286706033546817, guid: bad8b60fa6b035942bbf42dd385b13ca, type: 3}
      propertyPath: m_OnClick.m_PersistentCalls.m_Calls.Array.data[0].m_MethodName
      value: SendLinkFromBuildTower
      objectReference: {fileID: 0}
    - target: {fileID: 8900286706033546817, guid: bad8b60fa6b035942bbf42dd385b13ca, type: 3}
      propertyPath: m_OnClick.m_PersistentCalls.m_Calls.Array.data[0].m_TargetAssemblyTypeName
      value: ButtonFromBilldingTower, Assembly-CSharp
      objectReference: {fileID: 0}
    - target: {fileID: 8900286706033546817, guid: bad8b60fa6b035942bbf42dd385b13ca, type: 3}
      propertyPath: m_OnClick.m_PersistentCalls.m_Calls.Array.data[0].m_Arguments.m_ObjectArgumentAssemblyTypeName
      value: UnityEngine.Object, UnityEngine
      objectReference: {fileID: 0}
    - target: {fileID: 8900286706033546830, guid: bad8b60fa6b035942bbf42dd385b13ca, type: 3}
      propertyPath: m_Sprite
      value: 
      objectReference: {fileID: 21300000, guid: 67989c63c62f331478cb843cb2e65172, type: 3}
    - target: {fileID: 8900286706095722955, guid: bad8b60fa6b035942bbf42dd385b13ca, type: 3}
      propertyPath: m_Pivot.x
      value: 0
      objectReference: {fileID: 0}
    - target: {fileID: 8900286706095722955, guid: bad8b60fa6b035942bbf42dd385b13ca, type: 3}
      propertyPath: m_Pivot.y
      value: 0
      objectReference: {fileID: 0}
    - target: {fileID: 8900286706095722955, guid: bad8b60fa6b035942bbf42dd385b13ca, type: 3}
      propertyPath: m_RootOrder
      value: 4
      objectReference: {fileID: 0}
    - target: {fileID: 8900286706095722955, guid: bad8b60fa6b035942bbf42dd385b13ca, type: 3}
      propertyPath: m_AnchorMax.x
      value: 0
      objectReference: {fileID: 0}
    - target: {fileID: 8900286706095722955, guid: bad8b60fa6b035942bbf42dd385b13ca, type: 3}
      propertyPath: m_AnchorMax.y
      value: 0
      objectReference: {fileID: 0}
    - target: {fileID: 8900286706095722955, guid: bad8b60fa6b035942bbf42dd385b13ca, type: 3}
      propertyPath: m_AnchorMin.x
      value: 0
      objectReference: {fileID: 0}
    - target: {fileID: 8900286706095722955, guid: bad8b60fa6b035942bbf42dd385b13ca, type: 3}
      propertyPath: m_AnchorMin.y
      value: 0
      objectReference: {fileID: 0}
    - target: {fileID: 8900286706095722955, guid: bad8b60fa6b035942bbf42dd385b13ca, type: 3}
      propertyPath: m_SizeDelta.x
      value: 0
      objectReference: {fileID: 0}
    - target: {fileID: 8900286706095722955, guid: bad8b60fa6b035942bbf42dd385b13ca, type: 3}
      propertyPath: m_SizeDelta.y
      value: 0
      objectReference: {fileID: 0}
    - target: {fileID: 8900286706095722955, guid: bad8b60fa6b035942bbf42dd385b13ca, type: 3}
      propertyPath: m_LocalPosition.x
      value: 0
      objectReference: {fileID: 0}
    - target: {fileID: 8900286706095722955, guid: bad8b60fa6b035942bbf42dd385b13ca, type: 3}
      propertyPath: m_LocalPosition.y
      value: 0
      objectReference: {fileID: 0}
    - target: {fileID: 8900286706095722955, guid: bad8b60fa6b035942bbf42dd385b13ca, type: 3}
      propertyPath: m_LocalPosition.z
      value: 0
      objectReference: {fileID: 0}
    - target: {fileID: 8900286706095722955, guid: bad8b60fa6b035942bbf42dd385b13ca, type: 3}
      propertyPath: m_LocalRotation.w
      value: 1
      objectReference: {fileID: 0}
    - target: {fileID: 8900286706095722955, guid: bad8b60fa6b035942bbf42dd385b13ca, type: 3}
      propertyPath: m_LocalRotation.x
      value: 0
      objectReference: {fileID: 0}
    - target: {fileID: 8900286706095722955, guid: bad8b60fa6b035942bbf42dd385b13ca, type: 3}
      propertyPath: m_LocalRotation.y
      value: 0
      objectReference: {fileID: 0}
    - target: {fileID: 8900286706095722955, guid: bad8b60fa6b035942bbf42dd385b13ca, type: 3}
      propertyPath: m_LocalRotation.z
      value: 0
      objectReference: {fileID: 0}
    - target: {fileID: 8900286706095722955, guid: bad8b60fa6b035942bbf42dd385b13ca, type: 3}
      propertyPath: m_AnchoredPosition.x
      value: 0
      objectReference: {fileID: 0}
    - target: {fileID: 8900286706095722955, guid: bad8b60fa6b035942bbf42dd385b13ca, type: 3}
      propertyPath: m_AnchoredPosition.y
      value: 0
      objectReference: {fileID: 0}
    - target: {fileID: 8900286706095722955, guid: bad8b60fa6b035942bbf42dd385b13ca, type: 3}
      propertyPath: m_LocalEulerAnglesHint.x
      value: 0
      objectReference: {fileID: 0}
    - target: {fileID: 8900286706095722955, guid: bad8b60fa6b035942bbf42dd385b13ca, type: 3}
      propertyPath: m_LocalEulerAnglesHint.y
      value: 0
      objectReference: {fileID: 0}
    - target: {fileID: 8900286706095722955, guid: bad8b60fa6b035942bbf42dd385b13ca, type: 3}
      propertyPath: m_LocalEulerAnglesHint.z
      value: 0
      objectReference: {fileID: 0}
    - target: {fileID: 8900286706095722959, guid: bad8b60fa6b035942bbf42dd385b13ca, type: 3}
      propertyPath: m_Name
      value: Mode_Play
      objectReference: {fileID: 0}
    - target: {fileID: 8900286706138331910, guid: bad8b60fa6b035942bbf42dd385b13ca, type: 3}
      propertyPath: m_Sprite
      value: 
      objectReference: {fileID: 21300000, guid: 56f5c974c01848e4d8fff74b55f5f5e8, type: 3}
    - target: {fileID: 8900286706138331929, guid: bad8b60fa6b035942bbf42dd385b13ca, type: 3}
      propertyPath: m_Interactable
      value: 1
      objectReference: {fileID: 0}
    - target: {fileID: 8900286706138331929, guid: bad8b60fa6b035942bbf42dd385b13ca, type: 3}
      propertyPath: m_OnClick.m_PersistentCalls.m_Calls.Array.size
      value: 1
      objectReference: {fileID: 0}
    - target: {fileID: 8900286706138331929, guid: bad8b60fa6b035942bbf42dd385b13ca, type: 3}
      propertyPath: m_OnClick.m_PersistentCalls.m_Calls.Array.data[0].m_Mode
      value: 1
      objectReference: {fileID: 0}
    - target: {fileID: 8900286706138331929, guid: bad8b60fa6b035942bbf42dd385b13ca, type: 3}
      propertyPath: m_OnClick.m_PersistentCalls.m_Calls.Array.data[0].m_Target
      value: 
      objectReference: {fileID: 1539498972}
    - target: {fileID: 8900286706138331929, guid: bad8b60fa6b035942bbf42dd385b13ca, type: 3}
      propertyPath: m_OnClick.m_PersistentCalls.m_Calls.Array.data[0].m_CallState
      value: 2
      objectReference: {fileID: 0}
    - target: {fileID: 8900286706138331929, guid: bad8b60fa6b035942bbf42dd385b13ca, type: 3}
      propertyPath: m_OnClick.m_PersistentCalls.m_Calls.Array.data[0].m_MethodName
      value: SendLinkFromBuildTower
      objectReference: {fileID: 0}
    - target: {fileID: 8900286706138331929, guid: bad8b60fa6b035942bbf42dd385b13ca, type: 3}
      propertyPath: m_OnClick.m_PersistentCalls.m_Calls.Array.data[0].m_TargetAssemblyTypeName
      value: ButtonFromBilldingTower, Assembly-CSharp
      objectReference: {fileID: 0}
    - target: {fileID: 8900286706138331929, guid: bad8b60fa6b035942bbf42dd385b13ca, type: 3}
      propertyPath: m_OnClick.m_PersistentCalls.m_Calls.Array.data[0].m_Arguments.m_ObjectArgumentAssemblyTypeName
      value: UnityEngine.Object, UnityEngine
      objectReference: {fileID: 0}
    - target: {fileID: 8900286706159403820, guid: bad8b60fa6b035942bbf42dd385b13ca, type: 3}
      propertyPath: m_Sprite
      value: 
      objectReference: {fileID: 21300000, guid: c90452690f96b914bab30c14d7bf20d2, type: 3}
    - target: {fileID: 9046710419526063996, guid: bad8b60fa6b035942bbf42dd385b13ca, type: 3}
      propertyPath: _name
      value: 3
      objectReference: {fileID: 0}
    - target: {fileID: 9046710419526063996, guid: bad8b60fa6b035942bbf42dd385b13ca, type: 3}
      propertyPath: _button
      value: 
      objectReference: {fileID: 263484094}
    - target: {fileID: 9046710419526063996, guid: bad8b60fa6b035942bbf42dd385b13ca, type: 3}
      propertyPath: _building
      value: 
      objectReference: {fileID: 0}
    - target: {fileID: 9046710419526063996, guid: bad8b60fa6b035942bbf42dd385b13ca, type: 3}
      propertyPath: _crystalBank
      value: 
      objectReference: {fileID: 11400000, guid: abd3b2493ce4e4f43bdb4d77a69f4b01, type: 2}
    - target: {fileID: 9046710419526063996, guid: bad8b60fa6b035942bbf42dd385b13ca, type: 3}
      propertyPath: _dataAntiTank
      value: 
      objectReference: {fileID: 11400000, guid: c960739579532c94d9a27851f5c17a40, type: 2}
    - target: {fileID: 9046710419526063996, guid: bad8b60fa6b035942bbf42dd385b13ca, type: 3}
      propertyPath: _buttonAntiFly
      value: 
      objectReference: {fileID: 1293461293}
    - target: {fileID: 9046710419526063996, guid: bad8b60fa6b035942bbf42dd385b13ca, type: 3}
      propertyPath: _buttonMachine
      value: 
      objectReference: {fileID: 1583626401}
    - target: {fileID: 9046710419526063996, guid: bad8b60fa6b035942bbf42dd385b13ca, type: 3}
      propertyPath: _buttonAntiTank
      value: 
      objectReference: {fileID: 263484094}
    - target: {fileID: 9046710419526063996, guid: bad8b60fa6b035942bbf42dd385b13ca, type: 3}
      propertyPath: _towerSelection
      value: 
      objectReference: {fileID: 0}
    - target: {fileID: 9046710419526063996, guid: bad8b60fa6b035942bbf42dd385b13ca, type: 3}
      propertyPath: _buttonPlazmagan
      value: 
      objectReference: {fileID: 1639736169}
    - target: {fileID: 9046710419526063996, guid: bad8b60fa6b035942bbf42dd385b13ca, type: 3}
      propertyPath: _dataAntiFlyTower
      value: 
      objectReference: {fileID: 11400000, guid: e3a55a17f7032df4392dd2d2f40fecbd, type: 2}
    - target: {fileID: 9046710419526063996, guid: bad8b60fa6b035942bbf42dd385b13ca, type: 3}
      propertyPath: _dataMachineTower
      value: 
      objectReference: {fileID: 11400000, guid: c24cd283ce04a574f80ebf568feac179, type: 2}
    - target: {fileID: 9046710419526063996, guid: bad8b60fa6b035942bbf42dd385b13ca, type: 3}
      propertyPath: _platformForTower
      value: 
      objectReference: {fileID: 1825443065}
    - target: {fileID: 9046710419526063996, guid: bad8b60fa6b035942bbf42dd385b13ca, type: 3}
      propertyPath: _dataPlazmaganTower
      value: 
      objectReference: {fileID: 11400000, guid: e9c3c19811b36b3478eb80860fcd8f02, type: 2}
    - target: {fileID: 9046710419526063996, guid: bad8b60fa6b035942bbf42dd385b13ca, type: 3}
      propertyPath: _towerAntiFlyLevelOne
      value: 
      objectReference: {fileID: 11400000, guid: c960739579532c94d9a27851f5c17a40, type: 2}
    - target: {fileID: 9046710419526063996, guid: bad8b60fa6b035942bbf42dd385b13ca, type: 3}
      propertyPath: _towerMachineLevelOne
      value: 
      objectReference: {fileID: 11400000, guid: c24cd283ce04a574f80ebf568feac179, type: 2}
    - target: {fileID: 9046710419526063996, guid: bad8b60fa6b035942bbf42dd385b13ca, type: 3}
      propertyPath: _towerAntiTankLevelOne
      value: 
      objectReference: {fileID: 11400000, guid: c960739579532c94d9a27851f5c17a40, type: 2}
    - target: {fileID: 9046710419526063996, guid: bad8b60fa6b035942bbf42dd385b13ca, type: 3}
      propertyPath: _towerPlazmaganLevelOne
      value: 
      objectReference: {fileID: 11400000, guid: e9c3c19811b36b3478eb80860fcd8f02, type: 2}
    - target: {fileID: 9046710419526063996, guid: bad8b60fa6b035942bbf42dd385b13ca, type: 3}
      propertyPath: _dataAntiAirStrikeFlyTower
      value: 
      objectReference: {fileID: 11400000, guid: e3a55a17f7032df4392dd2d2f40fecbd, type: 2}
    m_RemovedComponents: []
  m_SourcePrefab: {fileID: 100100000, guid: bad8b60fa6b035942bbf42dd385b13ca, type: 3}
--- !u!114 &1539498972 stripped
MonoBehaviour:
  m_CorrespondingSourceObject: {fileID: 448845458545668061, guid: bad8b60fa6b035942bbf42dd385b13ca, type: 3}
  m_PrefabInstance: {fileID: 1539498971}
  m_PrefabAsset: {fileID: 0}
  m_GameObject: {fileID: 0}
  m_Enabled: 1
  m_EditorHideFlags: 0
  m_Script: {fileID: 11500000, guid: 5e70530c4f342ef4db1ff3880c11754c, type: 3}
  m_Name: 
  m_EditorClassIdentifier: 
--- !u!1 &1556198730
GameObject:
  m_ObjectHideFlags: 0
  m_CorrespondingSourceObject: {fileID: 0}
  m_PrefabInstance: {fileID: 0}
  m_PrefabAsset: {fileID: 0}
  serializedVersion: 6
  m_Component:
  - component: {fileID: 1556198731}
  m_Layer: 0
  m_Name: LogicaVisual
  m_TagString: Untagged
  m_Icon: {fileID: 0}
  m_NavMeshLayer: 0
  m_StaticEditorFlags: 0
  m_IsActive: 1
--- !u!4 &1556198731
Transform:
  m_ObjectHideFlags: 0
  m_CorrespondingSourceObject: {fileID: 0}
  m_PrefabInstance: {fileID: 0}
  m_PrefabAsset: {fileID: 0}
  m_GameObject: {fileID: 1556198730}
  m_LocalRotation: {x: 0, y: 0, z: 0, w: 1}
  m_LocalPosition: {x: 249.0273, y: 597.005, z: -13.468403}
  m_LocalScale: {x: 1, y: 1, z: 1}
  m_Children: []
  m_Father: {fileID: 0}
  m_RootOrder: 8
  m_LocalEulerAnglesHint: {x: 0, y: 0, z: 0}
--- !u!114 &1583626401 stripped
MonoBehaviour:
  m_CorrespondingSourceObject: {fileID: 8900286706033546817, guid: bad8b60fa6b035942bbf42dd385b13ca, type: 3}
  m_PrefabInstance: {fileID: 1539498971}
  m_PrefabAsset: {fileID: 0}
  m_GameObject: {fileID: 0}
  m_Enabled: 1
  m_EditorHideFlags: 0
  m_Script: {fileID: 11500000, guid: 4e29b1a8efbd4b44bb3f3716e73f07ff, type: 3}
  m_Name: 
  m_EditorClassIdentifier: 
--- !u!114 &1603789955 stripped
MonoBehaviour:
  m_CorrespondingSourceObject: {fileID: 8900286704884773289, guid: bad8b60fa6b035942bbf42dd385b13ca, type: 3}
  m_PrefabInstance: {fileID: 1539498971}
  m_PrefabAsset: {fileID: 0}
  m_GameObject: {fileID: 0}
  m_Enabled: 1
  m_EditorHideFlags: 0
  m_Script: {fileID: 11500000, guid: f4688fdb7df04437aeb418b961361dc5, type: 3}
  m_Name: 
  m_EditorClassIdentifier: 
--- !u!1 &1606081787
GameObject:
  m_ObjectHideFlags: 0
  m_CorrespondingSourceObject: {fileID: 0}
  m_PrefabInstance: {fileID: 0}
  m_PrefabAsset: {fileID: 0}
  serializedVersion: 6
  m_Component:
  - component: {fileID: 1606081789}
  - component: {fileID: 1606081788}
  m_Layer: 0
  m_Name: MustPlayObject
  m_TagString: Untagged
  m_Icon: {fileID: 0}
  m_NavMeshLayer: 0
  m_StaticEditorFlags: 0
  m_IsActive: 1
--- !u!114 &1606081788
MonoBehaviour:
  m_ObjectHideFlags: 0
  m_CorrespondingSourceObject: {fileID: 0}
  m_PrefabInstance: {fileID: 0}
  m_PrefabAsset: {fileID: 0}
  m_GameObject: {fileID: 1606081787}
  m_Enabled: 1
  m_EditorHideFlags: 0
  m_Script: {fileID: 11500000, guid: b2b9b821ae564dc48a0e7d0256882f49, type: 3}
  m_Name: 
  m_EditorClassIdentifier: 
  _crystalBank: {fileID: 11400000, guid: abd3b2493ce4e4f43bdb4d77a69f4b01, type: 2}
  _textLife: {fileID: 608738096}
  _textBnkCrystal: {fileID: 384797738}
  _machineTower: {fileID: 1583626401}
  _antiTankTower: {fileID: 263484094}
  _plazmaganTower: {fileID: 1639736169}
  _antiFlyTower: {fileID: 1293461293}
  _Ray: {fileID: 203410858}
  _gunTrio: {fileID: 316997553}
  _priceMachine: {fileID: 1603789955}
  _priceAntiTank: {fileID: 1309261754}
  _pricePlazmagan: {fileID: 1485351335}
  _priceAntiFly: {fileID: 2027578406}
  _buttonFromBilldingTower: {fileID: 352004870}
  _platformForTower: {fileID: 494791141}
--- !u!4 &1606081789
Transform:
  m_ObjectHideFlags: 0
  m_CorrespondingSourceObject: {fileID: 0}
  m_PrefabInstance: {fileID: 0}
  m_PrefabAsset: {fileID: 0}
  m_GameObject: {fileID: 1606081787}
  m_LocalRotation: {x: 0, y: 0, z: 0, w: 1}
  m_LocalPosition: {x: 687, y: 310, z: 0}
  m_LocalScale: {x: 1, y: 1, z: 1}
  m_Children: []
  m_Father: {fileID: 0}
  m_RootOrder: 6
  m_LocalEulerAnglesHint: {x: 0, y: 0, z: 0}
--- !u!114 &1639736169 stripped
MonoBehaviour:
  m_CorrespondingSourceObject: {fileID: 8900286704955789944, guid: bad8b60fa6b035942bbf42dd385b13ca, type: 3}
  m_PrefabInstance: {fileID: 1539498971}
  m_PrefabAsset: {fileID: 0}
  m_GameObject: {fileID: 0}
  m_Enabled: 1
  m_EditorHideFlags: 0
  m_Script: {fileID: 11500000, guid: 4e29b1a8efbd4b44bb3f3716e73f07ff, type: 3}
  m_Name: 
  m_EditorClassIdentifier: 
--- !u!1 &1825443063
GameObject:
  m_ObjectHideFlags: 0
  m_CorrespondingSourceObject: {fileID: 0}
  m_PrefabInstance: {fileID: 0}
  m_PrefabAsset: {fileID: 0}
  serializedVersion: 6
  m_Component:
  - component: {fileID: 1825443064}
  - component: {fileID: 1825443068}
  - component: {fileID: 1825443067}
  - component: {fileID: 1825443066}
  - component: {fileID: 1825443065}
  m_Layer: 0
  m_Name: Cube (1)
  m_TagString: Untagged
  m_Icon: {fileID: 0}
  m_NavMeshLayer: 0
  m_StaticEditorFlags: 0
  m_IsActive: 1
--- !u!4 &1825443064
Transform:
  m_ObjectHideFlags: 0
  m_CorrespondingSourceObject: {fileID: 0}
  m_PrefabInstance: {fileID: 0}
  m_PrefabAsset: {fileID: 0}
  m_GameObject: {fileID: 1825443063}
  m_LocalRotation: {x: -0, y: -0, z: -0, w: 1}
  m_LocalPosition: {x: -2.717, y: -0.57984567, z: 1.8499999}
  m_LocalScale: {x: 1, y: 1, z: 1}
  m_Children: []
  m_Father: {fileID: 494791142}
  m_RootOrder: 1
  m_LocalEulerAnglesHint: {x: 0, y: 0, z: 0}
--- !u!114 &1825443065
MonoBehaviour:
  m_ObjectHideFlags: 0
  m_CorrespondingSourceObject: {fileID: 0}
  m_PrefabInstance: {fileID: 0}
  m_PrefabAsset: {fileID: 0}
  m_GameObject: {fileID: 1825443063}
  m_Enabled: 1
  m_EditorHideFlags: 0
  m_Script: {fileID: 11500000, guid: 506b6be486f17c24184f27e9b063d004, type: 3}
  m_Name: 
  m_EditorClassIdentifier: 
  _platform: {fileID: 1825443064}
--- !u!65 &1825443066
BoxCollider:
  m_ObjectHideFlags: 0
  m_CorrespondingSourceObject: {fileID: 0}
  m_PrefabInstance: {fileID: 0}
  m_PrefabAsset: {fileID: 0}
  m_GameObject: {fileID: 1825443063}
  m_Material: {fileID: 0}
  m_IsTrigger: 0
  m_Enabled: 1
  serializedVersion: 2
  m_Size: {x: 1, y: 1, z: 1}
  m_Center: {x: 0, y: 0, z: 0}
--- !u!23 &1825443067
MeshRenderer:
  m_ObjectHideFlags: 0
  m_CorrespondingSourceObject: {fileID: 0}
  m_PrefabInstance: {fileID: 0}
  m_PrefabAsset: {fileID: 0}
  m_GameObject: {fileID: 1825443063}
  m_Enabled: 1
  m_CastShadows: 1
  m_ReceiveShadows: 1
  m_DynamicOccludee: 1
  m_MotionVectors: 1
  m_LightProbeUsage: 1
  m_ReflectionProbeUsage: 1
  m_RayTracingMode: 2
  m_RayTraceProcedural: 0
  m_RenderingLayerMask: 1
  m_RendererPriority: 0
  m_Materials:
  - {fileID: 2100000, guid: 51e5ce4b1a96ecf41a802b787aad1674, type: 2}
  m_StaticBatchInfo:
    firstSubMesh: 0
    subMeshCount: 0
  m_StaticBatchRoot: {fileID: 0}
  m_ProbeAnchor: {fileID: 0}
  m_LightProbeVolumeOverride: {fileID: 0}
  m_ScaleInLightmap: 1
  m_ReceiveGI: 1
  m_PreserveUVs: 0
  m_IgnoreNormalsForChartDetection: 0
  m_ImportantGI: 0
  m_StitchLightmapSeams: 1
  m_SelectedEditorRenderState: 3
  m_MinimumChartSize: 4
  m_AutoUVMaxDistance: 0.5
  m_AutoUVMaxAngle: 89
  m_LightmapParameters: {fileID: 0}
  m_SortingLayerID: 0
  m_SortingLayer: 0
  m_SortingOrder: 0
  m_AdditionalVertexStreams: {fileID: 0}
--- !u!33 &1825443068
MeshFilter:
  m_ObjectHideFlags: 0
  m_CorrespondingSourceObject: {fileID: 0}
  m_PrefabInstance: {fileID: 0}
  m_PrefabAsset: {fileID: 0}
  m_GameObject: {fileID: 1825443063}
  m_Mesh: {fileID: 10202, guid: 0000000000000000e000000000000000, type: 0}
--- !u!1 &1915703057
GameObject:
  m_ObjectHideFlags: 0
  m_CorrespondingSourceObject: {fileID: 0}
  m_PrefabInstance: {fileID: 0}
  m_PrefabAsset: {fileID: 0}
  serializedVersion: 6
  m_Component:
  - component: {fileID: 1915703061}
  - component: {fileID: 1915703060}
  - component: {fileID: 1915703059}
  - component: {fileID: 1915703058}
  m_Layer: 0
  m_Name: Enom
  m_TagString: Untagged
  m_Icon: {fileID: 0}
  m_NavMeshLayer: 0
  m_StaticEditorFlags: 0
  m_IsActive: 1
--- !u!65 &1915703058
BoxCollider:
  m_ObjectHideFlags: 0
  m_CorrespondingSourceObject: {fileID: 0}
  m_PrefabInstance: {fileID: 0}
  m_PrefabAsset: {fileID: 0}
  m_GameObject: {fileID: 1915703057}
  m_Material: {fileID: 0}
  m_IsTrigger: 0
  m_Enabled: 1
  serializedVersion: 2
  m_Size: {x: 1, y: 1, z: 1}
  m_Center: {x: 0, y: 0, z: 0}
--- !u!23 &1915703059
MeshRenderer:
  m_ObjectHideFlags: 0
  m_CorrespondingSourceObject: {fileID: 0}
  m_PrefabInstance: {fileID: 0}
  m_PrefabAsset: {fileID: 0}
  m_GameObject: {fileID: 1915703057}
  m_Enabled: 1
  m_CastShadows: 1
  m_ReceiveShadows: 1
  m_DynamicOccludee: 1
  m_MotionVectors: 1
  m_LightProbeUsage: 1
  m_ReflectionProbeUsage: 1
  m_RayTracingMode: 2
  m_RayTraceProcedural: 0
  m_RenderingLayerMask: 1
  m_RendererPriority: 0
  m_Materials:
  - {fileID: 2100000, guid: deabf732ae9eb9841919318e5d7abc9c, type: 2}
  m_StaticBatchInfo:
    firstSubMesh: 0
    subMeshCount: 0
  m_StaticBatchRoot: {fileID: 0}
  m_ProbeAnchor: {fileID: 0}
  m_LightProbeVolumeOverride: {fileID: 0}
  m_ScaleInLightmap: 1
  m_ReceiveGI: 1
  m_PreserveUVs: 0
  m_IgnoreNormalsForChartDetection: 0
  m_ImportantGI: 0
  m_StitchLightmapSeams: 1
  m_SelectedEditorRenderState: 3
  m_MinimumChartSize: 4
  m_AutoUVMaxDistance: 0.5
  m_AutoUVMaxAngle: 89
  m_LightmapParameters: {fileID: 0}
  m_SortingLayerID: 0
  m_SortingLayer: 0
  m_SortingOrder: 0
  m_AdditionalVertexStreams: {fileID: 0}
--- !u!33 &1915703060
MeshFilter:
  m_ObjectHideFlags: 0
  m_CorrespondingSourceObject: {fileID: 0}
  m_PrefabInstance: {fileID: 0}
  m_PrefabAsset: {fileID: 0}
  m_GameObject: {fileID: 1915703057}
  m_Mesh: {fileID: 10202, guid: 0000000000000000e000000000000000, type: 0}
--- !u!4 &1915703061
Transform:
  m_ObjectHideFlags: 0
  m_CorrespondingSourceObject: {fileID: 0}
  m_PrefabInstance: {fileID: 0}
  m_PrefabAsset: {fileID: 0}
  m_GameObject: {fileID: 1915703057}
  m_LocalRotation: {x: 0, y: 0, z: 0, w: 1}
  m_LocalPosition: {x: -0.93173945, y: 0.82, z: -0.56}
  m_LocalScale: {x: 1, y: 1, z: 1}
  m_Children: []
  m_Father: {fileID: 0}
  m_RootOrder: 5
  m_LocalEulerAnglesHint: {x: 0, y: 0, z: 0}
--- !u!114 &1950949499 stripped
MonoBehaviour:
  m_CorrespondingSourceObject: {fileID: 9046710419526063996, guid: bad8b60fa6b035942bbf42dd385b13ca, type: 3}
  m_PrefabInstance: {fileID: 1539498971}
  m_PrefabAsset: {fileID: 0}
  m_GameObject: {fileID: 0}
  m_Enabled: 1
  m_EditorHideFlags: 0
  m_Script: {fileID: 11500000, guid: 5e70530c4f342ef4db1ff3880c11754c, type: 3}
  m_Name: 
  m_EditorClassIdentifier: 
--- !u!114 &2027578406 stripped
MonoBehaviour:
  m_CorrespondingSourceObject: {fileID: 8900286705922829170, guid: bad8b60fa6b035942bbf42dd385b13ca, type: 3}
  m_PrefabInstance: {fileID: 1539498971}
  m_PrefabAsset: {fileID: 0}
  m_GameObject: {fileID: 0}
  m_Enabled: 1
  m_EditorHideFlags: 0
  m_Script: {fileID: 11500000, guid: f4688fdb7df04437aeb418b961361dc5, type: 3}
  m_Name: 
  m_EditorClassIdentifier: 
